The Fesshole Spreadsheet
…
# Comment out when an update is required.  Comment back in when done  
# write_rds(fesshole_pairs, here::here("data", "fesshole_pairs.rds"))

I will enhance the word pairs data set to include the words separate as well

fesshole_pairs_xl <- fesshole_pairs %>% 
  mutate(pairs = bigrams) %>% 
  separate(bigrams, c("word1", "word2"), sep = " ")

fesshole_pairs_xl

# A tibble: 1,332,545 x 5
   confess_id timestamp           word1     word2    pairs      
        <int> <dttm>              <chr>     <chr>    <chr>      
 1          1 2019-07-04 14:58:08 sometimes i        sometimes i
 2          1 2019-07-04 14:58:08 i         can't    i can't    
 3          1 2019-07-04 14:58:08 can't     be       can't be   
 4          1 2019-07-04 14:58:08 be        bothered be bothered
 5          1 2019-07-04 14:58:08 bothered  to       bothered to
 6          1 2019-07-04 14:58:08 to        use      to use     
 7          1 2019-07-04 14:58:08 use       loo      use loo    
 8          1 2019-07-04 14:58:08 loo       roll     loo roll   
 9          1 2019-07-04 14:58:08 roll      and      roll and   
10          1 2019-07-04 14:58:08 and       i        and i      
# … with 1,332,535 more rows
…
